<svg width="56" height="45" viewBox="0 0 56 45" fill="none" xmlns="http://www.w3.org/2000/svg">
<path d="M50.4 0H5.6C2.52 0 0 2.53125 0 5.625V39.375C0 42.4687 2.52 45 5.6 45H50.4C53.48 45 56 42.4687 56 39.375V5.625C56 2.53125 53.48 0 50.4 0ZM50.4 39.375H44.8V14.625L28 25.3125L11.2 14.625V39.375H5.6V5.625H8.96L28 17.4375L47.04 5.625H50.4V39.375Z" fill="white"/>
</svg>
